{
  "ack_policy": "explicit",
  "ack_wait": 300000000000,
  "deliver_policy": "all",
  "durable_name": "files-b2-fetch",
  "filter_subject": "files.b2.fetch",
  "max_ack_pending": 100000,
  "max_deliver": 10,
  "max_waiting": 512,
  "replay_policy": "instant"
}